test équipe sac (taille: 200)
test ramasse rune cible
test ramasse rune cible
test ramasse rune soin (soin: 10)
test prépare un sort
Exception in thread "main" com.google.java.contract.PreconditionError.
